com\health\care\service\AdminMedicalService.class
com\health\care\controller\EHealthCareController.class
com\health\care\dao\AdminMedicineDao.class
com\health\care\repository\MedicineRepository.class
com\health\care\service\UserService.class
com\health\care\model\Cart.class
com\health\care\controller\UserController.class
com\health\care\dao\UserDaoImpl.class
com\health\care\model\CustomerData.class
com\health\care\EHealthCareApplication.class
com\health\care\dao\AdminMedicineDaoImpl.class
com\health\care\model\MedicineData.class
com\health\care\repository\UserRepository.class
com\health\care\repository\UserEntityRepository.class
com\health\care\service\AdminMedicineServiceImpl.class
com\health\care\dao\UserDao.class
com\health\care\service\UserServiceImpl.class
